APB_PROTOCOL_Verification/output.txt
# UVM_INFO /usr/share/questa/questasim/verilog_src/questa_uvm_pkg-1.2/src/questa_uvm_pkg.sv(277) @ 0: reporter [Questa UVM] QUESTA_UVM-1.2.3
# UVM_INFO /usr/share/questa/questasim/verilog_src/questa_uvm_pkg-1.2/src/questa_uvm_pkg.sv(278) @ 0: reporter [Questa UVM]  questa_uvm::init(+struct)
# UVM_INFO test.sv(9) @ 0: uvm_test_top [Test Class] constructor
# UVM_INFO @ 0: reporter [RNTST] Running test apb_test...
# UVM_INFO environment.sv(9) @ 0: uvm_test_top.env [env Class] constructor
# UVM_INFO agent.sv(10) @ 0: uvm_test_top.env.agent [UVM Agent] constructor
# UVM_INFO scoreboard.sv(11) @ 0: uvm_test_top.env.scb [scoreboard Class] constructor
# UVM_INFO monitor.sv(11) @ 0: uvm_test_top.env.agent.mon [monitor Class] constructor
# UVM_INFO driver.sv(10) @ 0: uvm_test_top.env.agent.drv [driver Class] constructor
# UVM_INFO sequencer.sv(6) @ 0: uvm_test_top.env.agent.seqr [sequencer Class] constructor
# UVM_INFO agent.sv(21) @ 0: uvm_test_top.env.agent [agent Class] connect phase
# UVM_INFO environment.sv(19) @ 0: uvm_test_top.env [env Class] connect phase
# UVM_INFO test.sv(19) @ 0: uvm_test_top [Test Class] connect phase
# UVM_INFO agent.sv(26) @ 0: uvm_test_top.env.agent [agent Class] elob phase
# ------------------------------------------------------------
# Name                     Type                    Size  Value
# ------------------------------------------------------------
# agent                    apb_agent               -     @388 
#   drv                    apb_driver              -     @418 
#     rsp_port             uvm_analysis_port       -     @435 
#     seq_item_port        uvm_seq_item_pull_port  -     @426 
#   mon                    apb_monitor             -     @408 
#     item_collected_port  uvm_analysis_port       -     @572 
#   seqr                   apb_sequencer           -     @446 
#     rsp_export           uvm_analysis_export     -     @454 
#     seq_item_export      uvm_seq_item_pull_imp   -     @560 
#     arbitration_queue    array                   0     -    
#     lock_queue           array                   0     -    
#     num_last_reqs        integral                32    'd1  
#     num_last_rsps        integral                32    'd1  
# ------------------------------------------------------------
# UVM_INFO test.sv(23) @ 0: uvm_test_top [test Class] run_phase
# UVM_INFO sequence.sv(8) @ 0: reporter@@seq [sequence Class] constructor
# UVM_INFO driver.sv(21) @ 0: uvm_test_top.env.agent.drv [driver Class] run_phase
# UVM_INFO sequence_item.sv(18) @ 0: reporter@@tx [sequence_item] constructor
# UVM_INFO sequence_item.sv(18) @ 55000: reporter@@tx [sequence_item] constructor
# UVM_INFO scoreboard.sv(22) @ 55000: uvm_test_top.env.scb [SCB Write] Stored data: SADDR=cc88, SWDATA=a09a mem[cc88]=0
# UVM_INFO scoreboard.sv(41) @ 55000: uvm_test_top.env.scb [END OF A TRANSFER] One transation done
# UVM_INFO monitor.sv(44) @ 55000: uvm_test_top.env.agent.mon [Monitor ] preset=1 | pwrite=1 | ptransfer=1 | SADDR=cc88 | SWDATA=a09a | pready=1 |psel=1| f_data=0
# UVM_INFO interface.sv(73) @ 55000: reporter [ACCESS ACQUIRED] Slave access acquired
# UVM_INFO interface.sv(62) @ 55000: reporter [WRITE_DATA_STABLE] Write data stable
# UVM_INFO interface.sv(51) @ 55000: reporter [ADDRESS_STABLE] Address stable
# UVM_INFO sequence_item.sv(18) @ 65000: reporter@@tx [sequence_item] constructor
# UVM_INFO scoreboard.sv(22) @ 65000: uvm_test_top.env.scb [SCB Write] Stored data: SADDR=cc88, SWDATA=a09a mem[cc88]=0
# UVM_INFO scoreboard.sv(41) @ 65000: uvm_test_top.env.scb [END OF A TRANSFER] One transation done
# UVM_INFO monitor.sv(44) @ 65000: uvm_test_top.env.agent.mon [Monitor ] preset=1 | pwrite=1 | ptransfer=1 | SADDR=cc88 | SWDATA=a09a | pready=1 |psel=1| f_data=0
# UVM_INFO interface.sv(84) @ 65000: reporter [SLAVE_READY] Slave is ready
# UVM_INFO interface.sv(62) @ 65000: reporter [WRITE_DATA_STABLE] Write data stable
# UVM_INFO interface.sv(51) @ 65000: reporter [ADDRESS_STABLE] Address stable
# UVM_INFO driver.sv(44) @ 75000: uvm_test_top.env.agent.drv [Driver Drive] SADDR=cc88, SWDATA=a09a, swrite=1
# UVM_INFO driver.sv(21) @ 75000: uvm_test_top.env.agent.drv [driver Class] run_phase
# UVM_INFO sequence_item.sv(18) @ 75000: reporter@@tx [sequence_item] constructor
# UVM_INFO scoreboard.sv(22) @ 75000: uvm_test_top.env.scb [SCB Write] Stored data: SADDR=cc88, SWDATA=a09a mem[cc88]=0
# UVM_INFO scoreboard.sv(41) @ 75000: uvm_test_top.env.scb [END OF A TRANSFER] One transation done
# UVM_INFO monitor.sv(44) @ 75000: uvm_test_top.env.agent.mon [Monitor ] preset=1 | pwrite=1 | ptransfer=1 | SADDR=cc88 | SWDATA=a09a | pready=1 |psel=1| f_data=0
# UVM_INFO sequence_item.sv(18) @ 75000: reporter@@tx [sequence_item] constructor
# UVM_INFO interface.sv(84) @ 75000: reporter [SLAVE_READY] Slave is ready
# UVM_INFO interface.sv(84) @ 85000: reporter [SLAVE_READY] Slave is ready
# UVM_INFO interface.sv(95) @ 85000: reporter [PENABLE_CLEAR] Penable cleared
# UVM_INFO interface.sv(95) @ 85000: reporter [PENABLE_CLEAR] Penable cleared
# UVM_INFO sequence_item.sv(18) @ 95000: reporter@@tx [sequence_item] constructor
# UVM_INFO interface.sv(73) @ 95000: reporter [ACCESS ACQUIRED] Slave access acquired
# UVM_INFO interface.sv(62) @ 105000: reporter [WRITE_DATA_STABLE] Write data stable
# UVM_INFO interface.sv(51) @ 105000: reporter [ADDRESS_STABLE] Address stable
# UVM_INFO interface.sv(84) @ 105000: reporter [SLAVE_READY] Slave is ready
# UVM_INFO driver.sv(44) @ 115000: uvm_test_top.env.agent.drv [Driver Drive] SADDR=ffff89a3, SWDATA=f932, swrite=0
# UVM_INFO driver.sv(21) @ 115000: uvm_test_top.env.agent.drv [driver Class] run_phase
# UVM_INFO sequence_item.sv(18) @ 115000: reporter@@tx [sequence_item] constructor
# UVM_INFO interface.sv(73) @ 115000: reporter [ACCESS ACQUIRED] Slave access acquired
# UVM_INFO scoreboard.sv(29) @ 125000: uvm_test_top.env.scb [SCB_PASS] SADDR=ffff89a3, f_data=0, expected data=0,mem[ffff89a3]=0
# UVM_INFO scoreboard.sv(41) @ 125000: uvm_test_top.env.scb [END OF A TRANSFER] One transation done
# UVM_INFO monitor.sv(53) @ 125000: uvm_test_top.env.agent.mon [Monitor ] preset=1 | pwrite=0 | ptransfer=1 | SADDR=ffff89a3 | SWDATA=0 | pready=1 |psel=1| f_data=0
# UVM_INFO interface.sv(51) @ 125000: reporter [ADDRESS_STABLE] Address stable
# UVM_INFO interface.sv(84) @ 125000: reporter [SLAVE_READY] Slave is ready
# UVM_INFO sequence_item.sv(18) @ 135000: reporter@@tx [sequence_item] constructor
# UVM_INFO interface.sv(73) @ 135000: reporter [ACCESS ACQUIRED] Slave access acquired
# UVM_INFO interface.sv(51) @ 145000: reporter [ADDRESS_STABLE] Address stable
# UVM_INFO interface.sv(84) @ 145000: reporter [SLAVE_READY] Slave is ready
# UVM_INFO driver.sv(44) @ 155000: uvm_test_top.env.agent.drv [Driver Drive] SADDR=8173, SWDATA=e834, swrite=0
# UVM_INFO driver.sv(21) @ 155000: uvm_test_top.env.agent.drv [driver Class] run_phase
# UVM_INFO sequence_item.sv(18) @ 155000: reporter@@tx [sequence_item] constructor
# UVM_INFO interface.sv(73) @ 155000: reporter [ACCESS ACQUIRED] Slave access acquired
# UVM_INFO scoreboard.sv(29) @ 165000: uvm_test_top.env.scb [SCB_PASS] SADDR=8173, f_data=0, expected data=0,mem[8173]=0
# UVM_INFO scoreboard.sv(41) @ 165000: uvm_test_top.env.scb [END OF A TRANSFER] One transation done
# UVM_INFO monitor.sv(53) @ 165000: uvm_test_top.env.agent.mon [Monitor ] preset=1 | pwrite=0 | ptransfer=1 | SADDR=8173 | SWDATA=0 | pready=1 |psel=1| f_data=0
# UVM_INFO interface.sv(51) @ 165000: reporter [ADDRESS_STABLE] Address stable
# UVM_INFO interface.sv(84) @ 165000: reporter [SLAVE_READY] Slave is ready
# UVM_INFO sequence_item.sv(18) @ 175000: reporter@@tx [sequence_item] constructor
# UVM_INFO scoreboard.sv(22) @ 175000: uvm_test_top.env.scb [SCB Write] Stored data: SADDR=4b82, SWDATA=ffff5807 mem[4b82]=0
# UVM_INFO scoreboard.sv(41) @ 175000: uvm_test_top.env.scb [END OF A TRANSFER] One transation done
# UVM_INFO monitor.sv(44) @ 175000: uvm_test_top.env.agent.mon [Monitor ] preset=1 | pwrite=1 | ptransfer=1 | SADDR=4b82 | SWDATA=ffff5807 | pready=1 |psel=1| f_data=0
# UVM_INFO interface.sv(73) @ 175000: reporter [ACCESS ACQUIRED] Slave access acquired
# UVM_INFO interface.sv(51) @ 185000: reporter [ADDRESS_STABLE] Address stable
# UVM_INFO interface.sv(84) @ 185000: reporter [SLAVE_READY] Slave is ready
# UVM_INFO driver.sv(44) @ 195000: uvm_test_top.env.agent.drv [Driver Drive] SADDR=4b82, SWDATA=ffff5807, swrite=1
# UVM_INFO driver.sv(21) @ 195000: uvm_test_top.env.agent.drv [driver Class] run_phase
# UVM_INFO sequence_item.sv(18) @ 195000: reporter@@tx [sequence_item] constructor
# UVM_INFO scoreboard.sv(22) @ 195000: uvm_test_top.env.scb [SCB Write] Stored data: SADDR=4b82, SWDATA=ffff5807 mem[4b82]=0
# UVM_INFO scoreboard.sv(41) @ 195000: uvm_test_top.env.scb [END OF A TRANSFER] One transation done
# UVM_INFO monitor.sv(44) @ 195000: uvm_test_top.env.agent.mon [Monitor ] preset=1 | pwrite=1 | ptransfer=1 | SADDR=4b82 | SWDATA=ffff5807 | pready=1 |psel=1| f_data=0
# UVM_INFO sequence_item.sv(18) @ 195000: reporter@@tx [sequence_item] constructor
# UVM_INFO interface.sv(73) @ 195000: reporter [ACCESS ACQUIRED] Slave access acquired
# UVM_INFO interface.sv(62) @ 205000: reporter [WRITE_DATA_STABLE] Write data stable
# UVM_INFO interface.sv(51) @ 205000: reporter [ADDRESS_STABLE] Address stable
# UVM_INFO interface.sv(84) @ 205000: reporter [SLAVE_READY] Slave is ready
# UVM_INFO sequence_item.sv(18) @ 215000: reporter@@tx [sequence_item] constructor
# UVM_INFO interface.sv(73) @ 215000: reporter [ACCESS ACQUIRED] Slave access acquired
# UVM_INFO interface.sv(62) @ 225000: reporter [WRITE_DATA_STABLE] Write data stable
# UVM_INFO interface.sv(51) @ 225000: reporter [ADDRESS_STABLE] Address stable
# UVM_INFO interface.sv(84) @ 225000: reporter [SLAVE_READY] Slave is ready
# UVM_INFO driver.sv(44) @ 235000: uvm_test_top.env.agent.drv [Driver Drive] SADDR=ffff52ff, SWDATA=4261, swrite=0
# UVM_INFO driver.sv(21) @ 235000: uvm_test_top.env.agent.drv [driver Class] run_phase
# UVM_INFO sequence_item.sv(18) @ 235000: reporter@@tx [sequence_item] constructor
# UVM_INFO interface.sv(73) @ 235000: reporter [ACCESS ACQUIRED] Slave access acquired
# UVM_INFO scoreboard.sv(29) @ 245000: uvm_test_top.env.scb [SCB_PASS] SADDR=ffff52ff, f_data=0, expected data=0,mem[ffff52ff]=0
# UVM_INFO scoreboard.sv(41) @ 245000: uvm_test_top.env.scb [END OF A TRANSFER] One transation done
# UVM_INFO monitor.sv(53) @ 245000: uvm_test_top.env.agent.mon [Monitor ] preset=1 | pwrite=0 | ptransfer=1 | SADDR=ffff52ff | SWDATA=0 | pready=1 |psel=1| f_data=0
# UVM_INFO interface.sv(51) @ 245000: reporter [ADDRESS_STABLE] Address stable
# UVM_INFO interface.sv(84) @ 245000: reporter [SLAVE_READY] Slave is ready
# UVM_INFO sequence_item.sv(18) @ 255000: reporter@@tx [sequence_item] constructor
# UVM_INFO interface.sv(73) @ 255000: reporter [ACCESS ACQUIRED] Slave access acquired
# UVM_INFO interface.sv(51) @ 265000: reporter [ADDRESS_STABLE] Address stable
# UVM_INFO interface.sv(84) @ 265000: reporter [SLAVE_READY] Slave is ready
# UVM_INFO driver.sv(44) @ 275000: uvm_test_top.env.agent.drv [Driver Drive] SADDR=ffff1551, SWDATA=ffff8fee, swrite=0
# UVM_INFO driver.sv(21) @ 275000: uvm_test_top.env.agent.drv [driver Class] run_phase
# UVM_INFO sequence_item.sv(18) @ 275000: reporter@@tx [sequence_item] constructor
# UVM_INFO interface.sv(73) @ 275000: reporter [ACCESS ACQUIRED] Slave access acquired
# UVM_INFO scoreboard.sv(29) @ 285000: uvm_test_top.env.scb [SCB_PASS] SADDR=ffff1551, f_data=0, expected data=0,mem[ffff1551]=0
# UVM_INFO scoreboard.sv(41) @ 285000: uvm_test_top.env.scb [END OF A TRANSFER] One transation done
# UVM_INFO monitor.sv(53) @ 285000: uvm_test_top.env.agent.mon [Monitor ] preset=1 | pwrite=0 | ptransfer=1 | SADDR=ffff1551 | SWDATA=0 | pready=1 |psel=1| f_data=0
# UVM_INFO interface.sv(51) @ 285000: reporter [ADDRESS_STABLE] Address stable
# UVM_INFO interface.sv(84) @ 285000: reporter [SLAVE_READY] Slave is ready
# UVM_INFO sequence_item.sv(18) @ 295000: reporter@@tx [sequence_item] constructor
# UVM_INFO interface.sv(73) @ 295000: reporter [ACCESS ACQUIRED] Slave access acquired
# UVM_INFO interface.sv(51) @ 305000: reporter [ADDRESS_STABLE] Address stable
# UVM_INFO interface.sv(84) @ 305000: reporter [SLAVE_READY] Slave is ready
# UVM_INFO driver.sv(44) @ 315000: uvm_test_top.env.agent.drv [Driver Drive] SADDR=f9a8, SWDATA=bba0, swrite=0
# UVM_INFO driver.sv(21) @ 315000: uvm_test_top.env.agent.drv [driver Class] run_phase
# UVM_INFO sequence_item.sv(18) @ 315000: reporter@@tx [sequence_item] constructor
# UVM_INFO interface.sv(73) @ 315000: reporter [ACCESS ACQUIRED] Slave access acquired
# UVM_INFO scoreboard.sv(29) @ 325000: uvm_test_top.env.scb [SCB_PASS] SADDR=f9a8, f_data=a09a, expected data=a09a,mem[f9a8]=0
# UVM_INFO scoreboard.sv(41) @ 325000: uvm_test_top.env.scb [END OF A TRANSFER] One transation done
# UVM_INFO monitor.sv(53) @ 325000: uvm_test_top.env.agent.mon [Monitor ] preset=1 | pwrite=0 | ptransfer=1 | SADDR=f9a8 | SWDATA=0 | pready=1 |psel=1| f_data=a09a
# UVM_INFO interface.sv(51) @ 325000: reporter [ADDRESS_STABLE] Address stable
# UVM_INFO interface.sv(84) @ 325000: reporter [SLAVE_READY] Slave is ready
# UVM_INFO sequence_item.sv(18) @ 335000: reporter@@tx [sequence_item] constructor
# UVM_INFO interface.sv(73) @ 335000: reporter [ACCESS ACQUIRED] Slave access acquired
# UVM_INFO interface.sv(51) @ 345000: reporter [ADDRESS_STABLE] Address stable
# UVM_INFO interface.sv(84) @ 345000: reporter [SLAVE_READY] Slave is ready
# UVM_INFO driver.sv(44) @ 355000: uvm_test_top.env.agent.drv [Driver Drive] SADDR=ffff9304, SWDATA=ffff89a5, swrite=0
# UVM_INFO driver.sv(21) @ 355000: uvm_test_top.env.agent.drv [driver Class] run_phase
# UVM_INFO sequence_item.sv(18) @ 355000: reporter@@tx [sequence_item] constructor
# UVM_INFO interface.sv(73) @ 355000: reporter [ACCESS ACQUIRED] Slave access acquired
# UVM_INFO scoreboard.sv(29) @ 365000: uvm_test_top.env.scb [SCB_PASS] SADDR=ffff9304, f_data=0, expected data=0,mem[ffff9304]=0
# UVM_INFO scoreboard.sv(41) @ 365000: uvm_test_top.env.scb [END OF A TRANSFER] One transation done
# UVM_INFO monitor.sv(53) @ 365000: uvm_test_top.env.agent.mon [Monitor ] preset=1 | pwrite=0 | ptransfer=1 | SADDR=ffff9304 | SWDATA=0 | pready=1 |psel=1| f_data=0
# UVM_INFO interface.sv(51) @ 365000: reporter [ADDRESS_STABLE] Address stable
# UVM_INFO interface.sv(84) @ 365000: reporter [SLAVE_READY] Slave is ready
# UVM_INFO sequence_item.sv(18) @ 375000: reporter@@tx [sequence_item] constructor
# UVM_INFO interface.sv(73) @ 375000: reporter [ACCESS ACQUIRED] Slave access acquired
# UVM_INFO interface.sv(51) @ 385000: reporter [ADDRESS_STABLE] Address stable
# UVM_INFO interface.sv(84) @ 385000: reporter [SLAVE_READY] Slave is ready
# UVM_INFO driver.sv(44) @ 395000: uvm_test_top.env.agent.drv [Driver Drive] SADDR=ffff5ef3, SWDATA=69c6, swrite=0
# UVM_INFO driver.sv(21) @ 395000: uvm_test_top.env.agent.drv [driver Class] run_phase
# UVM_INFO sequence_item.sv(18) @ 395000: reporter@@tx [sequence_item] constructor
# UVM_INFO interface.sv(73) @ 395000: reporter [ACCESS ACQUIRED] Slave access acquired
# UVM_INFO scoreboard.sv(29) @ 405000: uvm_test_top.env.scb [SCB_PASS] SADDR=ffff5ef3, f_data=0, expected data=0,mem[ffff5ef3]=0
# UVM_INFO scoreboard.sv(41) @ 405000: uvm_test_top.env.scb [END OF A TRANSFER] One transation done
# UVM_INFO monitor.sv(53) @ 405000: uvm_test_top.env.agent.mon [Monitor ] preset=1 | pwrite=0 | ptransfer=1 | SADDR=ffff5ef3 | SWDATA=0 | pready=1 |psel=1| f_data=0
# UVM_INFO interface.sv(51) @ 405000: reporter [ADDRESS_STABLE] Address stable
# UVM_INFO interface.sv(84) @ 405000: reporter [SLAVE_READY] Slave is ready
# UVM_INFO sequence_item.sv(18) @ 415000: reporter@@tx [sequence_item] constructor
# UVM_INFO interface.sv(73) @ 415000: reporter [ACCESS ACQUIRED] Slave access acquired
# UVM_INFO interface.sv(51) @ 425000: reporter [ADDRESS_STABLE] Address stable
# UVM_INFO interface.sv(84) @ 425000: reporter [SLAVE_READY] Slave is ready
# UVM_INFO driver.sv(44) @ 435000: uvm_test_top.env.agent.drv [Driver Drive] SADDR=ffff2331, SWDATA=d63f, swrite=0
# UVM_INFO driver.sv(21) @ 435000: uvm_test_top.env.agent.drv [driver Class] run_phase
# UVM_INFO sequence_item.sv(18) @ 435000: reporter@@tx [sequence_item] constructor
# UVM_INFO interface.sv(73) @ 435000: reporter [ACCESS ACQUIRED] Slave access acquired
# UVM_INFO scoreboard.sv(29) @ 445000: uvm_test_top.env.scb [SCB_PASS] SADDR=ffff2331, f_data=0, expected data=0,mem[ffff2331]=0
# UVM_INFO scoreboard.sv(41) @ 445000: uvm_test_top.env.scb [END OF A TRANSFER] One transation done
# UVM_INFO monitor.sv(53) @ 445000: uvm_test_top.env.agent.mon [Monitor ] preset=1 | pwrite=0 | ptransfer=1 | SADDR=ffff2331 | SWDATA=0 | pready=1 |psel=1| f_data=0
# UVM_INFO interface.sv(51) @ 445000: reporter [ADDRESS_STABLE] Address stable
# UVM_INFO interface.sv(84) @ 445000: reporter [SLAVE_READY] Slave is ready
# UVM_INFO sequence_item.sv(18) @ 455000: reporter@@tx [sequence_item] constructor
# UVM_INFO interface.sv(73) @ 455000: reporter [ACCESS ACQUIRED] Slave access acquired
# UVM_INFO interface.sv(51) @ 465000: reporter [ADDRESS_STABLE] Address stable
# UVM_INFO interface.sv(84) @ 465000: reporter [SLAVE_READY] Slave is ready
# UVM_INFO driver.sv(44) @ 475000: uvm_test_top.env.agent.drv [Driver Drive] SADDR=ffffa0bc, SWDATA=e163, swrite=0
# UVM_INFO driver.sv(21) @ 475000: uvm_test_top.env.agent.drv [driver Class] run_phase
# UVM_INFO sequence_item.sv(18) @ 475000: reporter@@tx [sequence_item] constructor
# UVM_INFO interface.sv(73) @ 475000: reporter [ACCESS ACQUIRED] Slave access acquired
# UVM_INFO scoreboard.sv(29) @ 485000: uvm_test_top.env.scb [SCB_PASS] SADDR=ffffa0bc, f_data=0, expected data=0,mem[ffffa0bc]=0
# UVM_INFO scoreboard.sv(41) @ 485000: uvm_test_top.env.scb [END OF A TRANSFER] One transation done
# UVM_INFO monitor.sv(53) @ 485000: uvm_test_top.env.agent.mon [Monitor ] preset=1 | pwrite=0 | ptransfer=1 | SADDR=ffffa0bc | SWDATA=0 | pready=1 |psel=1| f_data=0
# UVM_INFO interface.sv(51) @ 485000: reporter [ADDRESS_STABLE] Address stable
# UVM_INFO interface.sv(84) @ 485000: reporter [SLAVE_READY] Slave is ready
# UVM_INFO sequence_item.sv(18) @ 495000: reporter@@tx [sequence_item] constructor
# UVM_INFO interface.sv(73) @ 495000: reporter [ACCESS ACQUIRED] Slave access acquired
# UVM_INFO interface.sv(51) @ 505000: reporter [ADDRESS_STABLE] Address stable
# UVM_INFO interface.sv(84) @ 505000: reporter [SLAVE_READY] Slave is ready
# UVM_INFO driver.sv(44) @ 515000: uvm_test_top.env.agent.drv [Driver Drive] SADDR=fffff6e8, SWDATA=356e, swrite=0
# UVM_INFO driver.sv(21) @ 515000: uvm_test_top.env.agent.drv [driver Class] run_phase
# UVM_INFO sequence_item.sv(18) @ 515000: reporter@@tx [sequence_item] constructor
# UVM_INFO interface.sv(73) @ 515000: reporter [ACCESS ACQUIRED] Slave access acquired
# UVM_INFO scoreboard.sv(29) @ 525000: uvm_test_top.env.scb [SCB_PASS] SADDR=fffff6e8, f_data=a09a, expected data=a09a,mem[fffff6e8]=0
# UVM_INFO scoreboard.sv(41) @ 525000: uvm_test_top.env.scb [END OF A TRANSFER] One transation done
# UVM_INFO monitor.sv(53) @ 525000: uvm_test_top.env.agent.mon [Monitor ] preset=1 | pwrite=0 | ptransfer=1 | SADDR=fffff6e8 | SWDATA=0 | pready=1 |psel=1| f_data=a09a
# UVM_INFO interface.sv(51) @ 525000: reporter [ADDRESS_STABLE] Address stable
# UVM_INFO interface.sv(84) @ 525000: reporter [SLAVE_READY] Slave is ready
# UVM_INFO sequence_item.sv(18) @ 535000: reporter@@tx [sequence_item] constructor
# UVM_INFO interface.sv(73) @ 535000: reporter [ACCESS ACQUIRED] Slave access acquired
# UVM_INFO interface.sv(51) @ 545000: reporter [ADDRESS_STABLE] Address stable
# UVM_INFO interface.sv(84) @ 545000: reporter [SLAVE_READY] Slave is ready
# UVM_INFO driver.sv(44) @ 555000: uvm_test_top.env.agent.drv [Driver Drive] SADDR=ffffb397, SWDATA=ffff47cb, swrite=0
# UVM_INFO driver.sv(21) @ 555000: uvm_test_top.env.agent.drv [driver Class] run_phase
# UVM_INFO sequence_item.sv(18) @ 555000: reporter@@tx [sequence_item] constructor
# UVM_INFO interface.sv(73) @ 555000: reporter [ACCESS ACQUIRED] Slave access acquired
# UVM_INFO scoreboard.sv(29) @ 565000: uvm_test_top.env.scb [SCB_PASS] SADDR=ffffb397, f_data=0, expected data=0,mem[ffffb397]=0
# UVM_INFO scoreboard.sv(41) @ 565000: uvm_test_top.env.scb [END OF A TRANSFER] One transation done
# UVM_INFO monitor.sv(53) @ 565000: uvm_test_top.env.agent.mon [Monitor ] preset=1 | pwrite=0 | ptransfer=1 | SADDR=ffffb397 | SWDATA=0 | pready=1 |psel=1| f_data=0
# UVM_INFO interface.sv(51) @ 565000: reporter [ADDRESS_STABLE] Address stable
# UVM_INFO interface.sv(84) @ 565000: reporter [SLAVE_READY] Slave is ready
# UVM_INFO sequence_item.sv(18) @ 575000: reporter@@tx [sequence_item] constructor
# UVM_INFO scoreboard.sv(22) @ 575000: uvm_test_top.env.scb [SCB Write] Stored data: SADDR=ffffab86, SWDATA=2c6f mem[ffffab86]=0
# UVM_INFO scoreboard.sv(41) @ 575000: uvm_test_top.env.scb [END OF A TRANSFER] One transation done
# UVM_INFO monitor.sv(44) @ 575000: uvm_test_top.env.agent.mon [Monitor ] preset=1 | pwrite=1 | ptransfer=1 | SADDR=ffffab86 | SWDATA=2c6f | pready=1 |psel=1| f_data=0
# UVM_INFO interface.sv(73) @ 575000: reporter [ACCESS ACQUIRED] Slave access acquired
# UVM_INFO interface.sv(51) @ 585000: reporter [ADDRESS_STABLE] Address stable
# UVM_INFO interface.sv(84) @ 585000: reporter [SLAVE_READY] Slave is ready
# UVM_INFO driver.sv(44) @ 595000: uvm_test_top.env.agent.drv [Driver Drive] SADDR=ffffab86, SWDATA=2c6f, swrite=1
# UVM_INFO driver.sv(21) @ 595000: uvm_test_top.env.agent.drv [driver Class] run_phase
# UVM_INFO sequence_item.sv(18) @ 595000: reporter@@tx [sequence_item] constructor
# UVM_INFO scoreboard.sv(22) @ 595000: uvm_test_top.env.scb [SCB Write] Stored data: SADDR=ffffab86, SWDATA=2c6f mem[ffffab86]=0
# UVM_INFO scoreboard.sv(41) @ 595000: uvm_test_top.env.scb [END OF A TRANSFER] One transation done
# UVM_INFO monitor.sv(44) @ 595000: uvm_test_top.env.agent.mon [Monitor ] preset=1 | pwrite=1 | ptransfer=1 | SADDR=ffffab86 | SWDATA=2c6f | pready=1 |psel=1| f_data=0
# UVM_INFO sequence_item.sv(18) @ 595000: reporter@@tx [sequence_item] constructor
# UVM_INFO interface.sv(73) @ 595000: reporter [ACCESS ACQUIRED] Slave access acquired
# UVM_INFO interface.sv(62) @ 605000: reporter [WRITE_DATA_STABLE] Write data stable
# UVM_INFO interface.sv(51) @ 605000: reporter [ADDRESS_STABLE] Address stable
# UVM_INFO interface.sv(84) @ 605000: reporter [SLAVE_READY] Slave is ready
# UVM_INFO sequence_item.sv(18) @ 615000: reporter@@tx [sequence_item] constructor
# UVM_INFO interface.sv(73) @ 615000: reporter [ACCESS ACQUIRED] Slave access acquired
# UVM_INFO interface.sv(62) @ 625000: reporter [WRITE_DATA_STABLE] Write data stable
# UVM_INFO interface.sv(51) @ 625000: reporter [ADDRESS_STABLE] Address stable
# UVM_INFO interface.sv(84) @ 625000: reporter [SLAVE_READY] Slave is ready
# UVM_INFO driver.sv(44) @ 635000: uvm_test_top.env.agent.drv [Driver Drive] SADDR=72e6, SWDATA=5216, swrite=0
# UVM_INFO driver.sv(21) @ 635000: uvm_test_top.env.agent.drv [driver Class] run_phase
# UVM_INFO sequence_item.sv(18) @ 635000: reporter@@tx [sequence_item] constructor
# UVM_INFO interface.sv(73) @ 635000: reporter [ACCESS ACQUIRED] Slave access acquired
# UVM_INFO scoreboard.sv(29) @ 645000: uvm_test_top.env.scb [SCB_PASS] SADDR=72e6, f_data=2c6f, expected data=2c6f,mem[72e6]=0
# UVM_INFO scoreboard.sv(41) @ 645000: uvm_test_top.env.scb [END OF A TRANSFER] One transation done
# UVM_INFO monitor.sv(53) @ 645000: uvm_test_top.env.agent.mon [Monitor ] preset=1 | pwrite=0 | ptransfer=1 | SADDR=72e6 | SWDATA=0 | pready=1 |psel=1| f_data=2c6f
# UVM_INFO interface.sv(51) @ 645000: reporter [ADDRESS_STABLE] Address stable
# UVM_INFO interface.sv(84) @ 645000: reporter [SLAVE_READY] Slave is ready
# UVM_INFO sequence_item.sv(18) @ 655000: reporter@@tx [sequence_item] constructor
# UVM_INFO interface.sv(73) @ 655000: reporter [ACCESS ACQUIRED] Slave access acquired
# UVM_INFO interface.sv(51) @ 665000: reporter [ADDRESS_STABLE] Address stable
# UVM_INFO interface.sv(84) @ 665000: reporter [SLAVE_READY] Slave is ready
# UVM_INFO driver.sv(44) @ 675000: uvm_test_top.env.agent.drv [Driver Drive] SADDR=ffff630d, SWDATA=ffffa968, swrite=0
# UVM_INFO driver.sv(21) @ 675000: uvm_test_top.env.agent.drv [driver Class] run_phase
# UVM_INFO sequence_item.sv(18) @ 675000: reporter@@tx [sequence_item] constructor
# UVM_INFO interface.sv(73) @ 675000: reporter [ACCESS ACQUIRED] Slave access acquired
# UVM_INFO scoreboard.sv(29) @ 685000: uvm_test_top.env.scb [SCB_PASS] SADDR=ffff630d, f_data=0, expected data=0,mem[ffff630d]=0
# UVM_INFO scoreboard.sv(41) @ 685000: uvm_test_top.env.scb [END OF A TRANSFER] One transation done
# UVM_INFO monitor.sv(53) @ 685000: uvm_test_top.env.agent.mon [Monitor ] preset=1 | pwrite=0 | ptransfer=1 | SADDR=ffff630d | SWDATA=0 | pready=1 |psel=1| f_data=0
# UVM_INFO interface.sv(51) @ 685000: reporter [ADDRESS_STABLE] Address stable
# UVM_INFO interface.sv(84) @ 685000: reporter [SLAVE_READY] Slave is ready
# UVM_INFO sequence_item.sv(18) @ 695000: reporter@@tx [sequence_item] constructor
# UVM_INFO scoreboard.sv(22) @ 695000: uvm_test_top.env.scb [SCB Write] Stored data: SADDR=dd0b, SWDATA=243a mem[dd0b]=0
# UVM_INFO scoreboard.sv(41) @ 695000: uvm_test_top.env.scb [END OF A TRANSFER] One transation done
# UVM_INFO monitor.sv(44) @ 695000: uvm_test_top.env.agent.mon [Monitor ] preset=1 | pwrite=1 | ptransfer=1 | SADDR=dd0b | SWDATA=243a | pready=1 |psel=1| f_data=0
# UVM_INFO interface.sv(73) @ 695000: reporter [ACCESS ACQUIRED] Slave access acquired
# UVM_INFO interface.sv(51) @ 705000: reporter [ADDRESS_STABLE] Address stable
# UVM_INFO interface.sv(84) @ 705000: reporter [SLAVE_READY] Slave is ready
# UVM_INFO driver.sv(44) @ 715000: uvm_test_top.env.agent.drv [Driver Drive] SADDR=dd0b, SWDATA=243a, swrite=1
# UVM_INFO driver.sv(21) @ 715000: uvm_test_top.env.agent.drv [driver Class] run_phase
# UVM_INFO sequence_item.sv(18) @ 715000: reporter@@tx [sequence_item] constructor
# UVM_INFO scoreboard.sv(22) @ 715000: uvm_test_top.env.scb [SCB Write] Stored data: SADDR=dd0b, SWDATA=243a mem[dd0b]=0
# UVM_INFO scoreboard.sv(41) @ 715000: uvm_test_top.env.scb [END OF A TRANSFER] One transation done
# UVM_INFO monitor.sv(44) @ 715000: uvm_test_top.env.agent.mon [Monitor ] preset=1 | pwrite=1 | ptransfer=1 | SADDR=dd0b | SWDATA=243a | pready=1 |psel=1| f_data=0
